…
Haiti vs. Iran
--------------

-   Each word is rated as either positive or negative for this examination using bing taxonomy

The prior plot showed that Haiti and Iran were the two countries that showed up most frequently in email's subjects

So let's compare the words in those emails:

    ## Joining, by = "word"
    ## Joining, by = "word"

    ## # A tibble: 2,629 × 2
    ##           word     n
    ##          <chr> <int>
    ## 1        haiti   161
    ## 2       people    76
    ## 3      haitian    70
    ## 4  settlements    52
    ## 5   government    39
    ## 6          fyi    38
    ## 7    including    33
    ## 8         plan    32
    ## 9          u.s    32
    ## 10    security    31
    ## # ... with 2,619 more rows

    ## # A tibble: 3,271 × 2
    ##            word     n
    ##           <chr> <int>
    ## 1          iran   101
    ## 2       iranian    59
    ## 3          2009    57
    ## 4        iran's    51
    ## 5   ahmadinejad    41
    ## 6          2005    36
    ## 7  presidential    36
    ## 8      election    31
    ## 9        border    30
    ## 10         iraq    26
    ## # ... with 3,261 more rows
…
